<svg width="109" height="109" viewBox="0 0 109 109" fill="none" xmlns="http://www.w3.org/2000/svg">
<path d="M56.244 105.146L61.04 104.816C62.675 104.596 64.201 104.266 65.836 104.045C67.362 103.715 68.997 103.165 70.523 102.834C72.049 102.284 73.575 101.733 74.992 101.183C80.878 98.6505 86.328 95.0172 90.797 90.3929C95.375 85.8788 98.972 80.3737 101.479 74.4283C102.024 72.8869 102.678 71.4556 103.114 69.9142C103.55 68.3727 103.986 66.8313 104.313 65.1798C104.531 63.5283 104.858 61.9869 105.076 60.3354L105.403 55.4909L105.294 60.4455C105.076 62.097 104.858 63.6384 104.64 65.2899C104.313 66.9414 103.877 68.4828 103.55 70.0243C103.114 71.5657 102.46 73.1071 101.915 74.6485C99.517 80.704 95.8109 86.3192 91.2329 91.0536C86.546 95.6778 81.096 99.4212 74.992 101.843C73.466 102.394 71.94 102.944 70.414 103.495C68.779 103.825 67.253 104.266 65.727 104.596C64.31 104.596 62.675 104.816 61.04 105.036L56.244 105.146Z" fill="#DEAB52"/>
<path d="M109 55.2707C109 62.2071 107.801 69.2535 105.185 75.7495C102.569 82.2455 98.645 88.1909 93.74 93.1455C88.835 98.1 82.949 102.174 76.518 104.816C70.087 107.569 63.111 109 56.244 109C49.268 109 42.292 107.569 35.861 104.816C29.43 102.174 23.544 98.1 18.639 93.1455C13.734 88.1909 9.81001 82.2455 7.19401 75.7495C4.57801 69.2535 3.27001 62.2071 3.37901 55.2707C3.48801 69.2535 9.26501 83.0162 19.075 92.8151C23.98 97.6596 29.757 101.623 36.188 104.266C42.51 106.798 49.377 108.229 56.244 108.229C63.111 108.229 69.869 106.798 76.3 104.156C82.622 101.513 88.508 97.6596 93.413 92.705C103.114 83.0162 108.891 69.2535 109 55.2707Z" fill="#DEAB52"/>
<path d="M0 56.9222L0.218 51.3071C0.436 49.4354 0.653999 47.5636 0.980999 45.802C1.308 43.9303 1.853 42.1687 2.289 40.4071C2.834 38.6455 3.488 36.8838 4.142 35.1222C6.867 28.1859 11.118 21.9101 16.35 16.5152C21.582 11.2303 27.904 7.04647 34.771 4.18384C36.515 3.52324 38.259 2.86263 40.003 2.31212C41.747 1.87172 43.6 1.43132 45.344 0.990911C47.197 0.770709 49.05 0.440401 50.794 0.220199L56.353 0L50.903 0.330307C49.05 0.550509 47.306 0.990908 45.453 1.21111C43.709 1.65151 41.965 2.20202 40.112 2.64243C38.368 3.19293 36.733 3.96364 34.989 4.51414C28.231 7.37677 22.127 11.5606 16.895 16.8455C11.663 22.0202 7.521 28.296 4.687 35.1222C4.033 36.8838 3.379 38.5354 2.834 40.297C2.18 42.2788 1.744 44.0404 1.308 45.9121C0.980999 47.7838 0.654 49.5455 0.436 51.4172L0 56.9222Z" fill="#DEAB52"/>
<path d="M3.37897 56.9222L3.48797 51.6374C3.70597 49.8758 3.92397 48.2243 4.14197 46.4626C4.46897 44.701 4.90497 43.0495 5.34097 41.398C5.88597 39.7465 6.43097 38.095 7.08497 36.4434C9.70097 29.9475 13.625 24.002 18.53 18.9374C23.435 13.9828 29.43 10.0192 35.861 7.37677C37.496 6.82626 39.131 6.16566 40.766 5.61515C42.51 5.17475 44.145 4.73435 45.78 4.40404C47.524 4.18384 49.268 3.96364 50.903 3.74344L56.135 3.63334L51.012 3.96364C49.268 4.18384 47.633 4.51415 45.889 4.84445C44.254 5.28485 42.51 5.72526 40.875 6.16566C39.24 6.71616 37.605 7.37677 36.079 7.92727C29.757 10.6798 23.98 14.5333 19.075 19.4879C14.17 24.3323 10.355 30.2778 7.62997 36.6636C7.08497 38.3152 6.43097 39.8566 5.88597 41.5081C5.44997 43.1596 5.01397 44.8111 4.57797 46.5727C4.35997 48.2242 4.03297 49.9859 3.70597 51.7475L3.37897 56.9222Z" fill="#DEAB52"/>
<path d="M105.621 51.9677L105.294 47.2333C105.076 45.6919 104.749 44.1505 104.531 42.6091C104.204 41.0677 103.768 39.5262 103.332 38.0949C102.896 36.6636 102.242 35.1222 101.697 33.6909C99.299 27.9656 95.811 22.6808 91.342 18.2767C86.982 13.8727 81.75 10.3495 76.082 7.81715C74.665 7.26664 73.248 6.71614 71.722 6.16564C70.196 5.72523 68.779 5.28483 67.253 4.95453C65.727 4.73432 64.201 4.40402 62.675 4.18382L57.988 3.85352L62.675 3.96361C64.201 4.07372 65.727 4.40402 67.362 4.51412C68.888 4.84442 70.414 5.28483 71.94 5.61513C73.466 6.05553 74.883 6.60604 76.409 7.15655C82.186 9.46867 87.527 13.102 91.996 17.6161C96.465 22.1303 99.953 27.5252 102.351 33.3606C102.896 34.902 103.441 36.3333 103.877 37.8747C104.204 39.4161 104.64 40.9576 104.967 42.499C105.185 44.0404 105.403 45.5818 105.512 47.2333L105.621 51.9677Z" fill="#DEAB52"/>
<path d="M25.8153 41.4254C25.8153 41.8505 25.9189 42.2211 26.126 42.5373C26.3331 42.8533 26.5838 43.1204 26.8781 43.3384C27.1724 43.5455 27.5866 43.8125 28.1207 44.1395C28.6875 44.4774 29.1289 44.7608 29.445 44.9897C29.7611 45.2186 30.0282 45.5129 30.2462 45.8726C30.4751 46.2214 30.5895 46.6411 30.5895 47.1316C30.5895 47.6548 30.4587 48.1289 30.1971 48.5541C29.9355 48.9791 29.5486 49.317 29.0363 49.5677C28.5349 49.8075 27.9299 49.9274 27.2214 49.9274C26.3821 49.9274 25.6137 49.7367 24.9161 49.3552C24.8616 49.3225 24.8234 49.2843 24.8016 49.2407C24.7907 49.1971 24.7798 49.1318 24.7689 49.0446L24.5564 46.8209C24.5455 46.7774 24.5673 46.7501 24.6218 46.7392C24.6872 46.7283 24.7253 46.7446 24.7362 46.7882C24.9106 47.573 25.2322 48.2488 25.7009 48.8156C26.1805 49.3824 26.8127 49.6658 27.5975 49.6658C28.1425 49.6658 28.6003 49.5187 28.9709 49.2244C29.3524 48.9192 29.5431 48.4396 29.5431 47.7856C29.5431 47.2951 29.4341 46.87 29.2161 46.5103C28.9981 46.1506 28.7311 45.8563 28.415 45.6274C28.1098 45.3876 27.6901 45.1096 27.156 44.7935C26.6328 44.4774 26.2186 44.2049 25.9134 43.976C25.6191 43.7471 25.3684 43.4583 25.1613 43.1095C24.9542 42.7607 24.8507 42.3519 24.8507 41.8832C24.8507 41.3382 24.9924 40.875 25.2758 40.4935C25.5701 40.1011 25.9461 39.8122 26.4039 39.6269C26.8726 39.4307 27.3686 39.3326 27.8918 39.3326C28.5349 39.3326 29.1725 39.4634 29.8047 39.725C29.9682 39.7795 30.05 39.8722 30.05 40.003L30.1644 41.8832C30.1644 41.9268 30.1372 41.9486 30.0827 41.9486C30.0282 41.9486 29.9955 41.9268 29.9846 41.8832C29.8974 41.3164 29.663 40.7932 29.2815 40.3136C28.9 39.8231 28.3496 39.5779 27.6302 39.5779C27.0198 39.5779 26.562 39.7577 26.2568 40.1174C25.9625 40.4662 25.8153 40.9022 25.8153 41.4254Z" fill="#DEAB52"/>
<path d="M39.4383 48.7993C39.4819 48.7993 39.5092 48.8265 39.5201 48.881C39.5419 48.9246 39.531 48.9574 39.4874 48.9791L37.5744 49.8784L37.509 49.8947C37.4 49.8947 37.2965 49.7694 37.1984 49.5187C37.1003 49.268 37.0512 48.941 37.0512 48.5377V48.4723C36.6261 48.9519 36.201 49.3061 35.7759 49.535C35.3508 49.753 34.9094 49.862 34.4516 49.862C33.9066 49.862 33.4815 49.6931 33.1763 49.3552C32.8711 49.0064 32.7185 48.505 32.7185 47.851V45.3494C32.7185 44.9243 32.6803 44.6191 32.604 44.4338C32.5277 44.2376 32.4024 44.1395 32.228 44.1395C32.0754 44.1395 31.8901 44.194 31.6721 44.303H31.6557C31.6121 44.303 31.5794 44.2758 31.5576 44.2213C31.5358 44.1559 31.5467 44.1177 31.5903 44.1068L33.4052 43.2893L33.4706 43.273C33.5033 43.273 33.536 43.2893 33.5687 43.322C33.6123 43.3438 33.6341 43.3711 33.6341 43.4038V47.3114C33.6341 48.5758 34.0919 49.208 35.0075 49.208C35.3563 49.208 35.7105 49.1208 36.0702 48.9464C36.4299 48.7611 36.7569 48.5104 37.0512 48.1944V45.3494C37.0512 44.9134 37.0131 44.6028 36.9368 44.4175C36.8714 44.2322 36.746 44.1395 36.5607 44.1395C36.4081 44.1395 36.2228 44.194 36.0048 44.303H35.9885C35.9449 44.303 35.9122 44.2758 35.8904 44.2213C35.8795 44.1559 35.8958 44.1177 35.9394 44.1068L37.7543 43.2893L37.8033 43.273C37.836 43.273 37.8687 43.2893 37.9014 43.322C37.945 43.3438 37.9668 43.3711 37.9668 43.4038V47.9818C37.9668 48.3524 38.0104 48.6194 38.0976 48.7829C38.1848 48.9464 38.332 49.0282 38.5391 49.0282C38.7244 49.0282 39.0132 48.9519 39.4056 48.7993H39.4383Z" fill="#DEAB52"/>
<path d="M44.6403 43.2076C45.109 43.2076 45.545 43.322 45.9483 43.5509C46.3516 43.7798 46.6731 44.1232 46.9129 44.581C47.1527 45.0279 47.2726 45.5783 47.2726 46.2323C47.2726 47.0171 47.0983 47.693 46.7495 48.2598C46.4116 48.8157 45.9646 49.2353 45.4087 49.5187C44.8638 49.8021 44.2861 49.9438 43.6757 49.9438C42.8363 49.9438 42.0951 49.704 41.4521 49.2244L40.2095 49.813H40.1768C40.1332 49.813 40.1059 49.7912 40.095 49.7476C40.0841 49.704 40.095 49.6713 40.1277 49.6495C40.4765 49.4097 40.7218 49.1862 40.8635 48.9791C41.0052 48.7612 41.076 48.4505 41.076 48.0472V39.9703C41.076 39.5779 41.0324 39.2945 40.9452 39.1201C40.8689 38.9457 40.7327 38.8585 40.5365 38.8585C40.3839 38.8585 40.1386 38.9293 39.8007 39.071H39.768C39.7353 39.071 39.7081 39.0438 39.6863 38.9893C39.6754 38.9348 39.6863 38.9021 39.719 38.8912L41.7627 37.8938L41.8445 37.8775C41.8663 37.8775 41.8935 37.8938 41.9262 37.9265C41.9698 37.9483 41.9916 37.9756 41.9916 38.0083V44.63C42.4058 44.194 42.82 43.8507 43.2342 43.6C43.6484 43.3384 44.1171 43.2076 44.6403 43.2076ZM44.1825 49.6331C44.8147 49.6331 45.3052 49.3879 45.654 48.8974C46.0137 48.4069 46.1936 47.7038 46.1936 46.7882C46.1936 45.8072 46.0028 45.0551 45.6213 44.5319C45.2398 44.0088 44.733 43.7472 44.1007 43.7472C43.7302 43.7472 43.3759 43.8507 43.038 44.0578C42.7001 44.254 42.3513 44.5319 41.9916 44.8917V47.573C41.9916 48.0526 42.1061 48.445 42.335 48.7503C42.5748 49.0555 42.8636 49.2789 43.2015 49.4206C43.5394 49.5623 43.8664 49.6331 44.1825 49.6331Z" fill="#DEAB52"/>
<path d="M49.5088 44.4175C49.5088 44.799 49.6341 45.1042 49.8848 45.3331C50.1355 45.5511 50.5061 45.7854 50.9966 46.0361C51.3781 46.2323 51.6724 46.4013 51.8795 46.543C52.0975 46.6847 52.2828 46.87 52.4354 47.0989C52.588 47.3278 52.6643 47.6057 52.6643 47.9327C52.6643 48.4886 52.4572 48.9574 52.043 49.3388C51.6288 49.7203 51.0675 49.9111 50.359 49.9111C49.7813 49.9111 49.2581 49.7476 48.7894 49.4206C48.724 49.377 48.6913 49.3116 48.6913 49.2244L48.6586 47.9491C48.6586 47.9164 48.6858 47.9001 48.7403 47.9001C48.8057 47.8891 48.8439 47.9 48.8548 47.9327C49.0619 48.4777 49.3289 48.8919 49.6559 49.1753C49.9938 49.4587 50.3808 49.6004 50.8168 49.6004C51.1547 49.6004 51.4163 49.5241 51.6016 49.3715C51.7978 49.208 51.8959 48.9682 51.8959 48.6521C51.8959 48.3469 51.825 48.0908 51.6833 47.8837C51.5525 47.6657 51.389 47.4967 51.1928 47.3768C50.9966 47.246 50.7296 47.0934 50.3917 46.919C50.032 46.7446 49.7431 46.5866 49.5251 46.4449C49.318 46.3032 49.1382 46.1179 48.9856 45.889C48.8439 45.6601 48.773 45.3767 48.773 45.0388C48.773 44.4502 48.991 44.0033 49.427 43.6981C49.8739 43.382 50.3971 43.2239 50.9966 43.2239C51.4326 43.2239 51.8305 43.3057 52.1902 43.4692C52.2556 43.491 52.2937 43.5182 52.3046 43.5509C52.3264 43.5727 52.3373 43.6054 52.3373 43.649C52.3373 43.867 52.3319 44.036 52.321 44.1559L52.3046 44.8426C52.3046 44.8644 52.2719 44.8753 52.2065 44.8753C52.1411 44.8753 52.1084 44.8644 52.1084 44.8426C52.1084 44.6137 52.0212 44.4011 51.8468 44.2049C51.6724 43.9978 51.4544 43.8343 51.1928 43.7144C50.9312 43.5945 50.6696 43.5346 50.408 43.5346C50.1246 43.5346 49.9012 43.6109 49.7377 43.7635C49.5851 43.9052 49.5088 44.1232 49.5088 44.4175Z" fill="#DEAB52"/>
<path d="M57.1751 49.9274C56.4666 49.9274 55.8726 49.7748 55.393 49.4697C54.9134 49.1535 54.5591 48.7503 54.3302 48.2598C54.1013 47.7692 53.9869 47.2515 53.9869 46.7065C53.9869 46.0089 54.1613 45.4039 54.5101 44.8917C54.8589 44.3685 55.3058 43.9706 55.8508 43.6981C56.4067 43.4147 56.9735 43.273 57.5512 43.273C58.0308 43.273 58.4668 43.3711 58.8592 43.5673C59.2625 43.7526 59.4641 43.9869 59.4641 44.2703C59.4641 44.412 59.4096 44.5374 59.3006 44.6464C59.2025 44.7445 59.0663 44.7935 58.8919 44.7935C58.5976 44.7935 58.3578 44.6137 58.1725 44.254C58.0308 44.036 57.8782 43.8725 57.7147 43.7635C57.5512 43.6545 57.3168 43.6 57.0116 43.6C56.4012 43.6 55.9216 43.8398 55.5728 44.3194C55.2349 44.7881 55.066 45.4203 55.066 46.216C55.066 47.1316 55.2949 47.8837 55.7527 48.4723C56.2105 49.0609 56.8972 49.3552 57.8128 49.3552C58.4777 49.3552 59.0336 49.1753 59.4805 48.8156H59.4968C59.5295 48.8156 59.5568 48.832 59.5786 48.8647C59.6113 48.8974 59.6167 48.9246 59.5949 48.9464C59.2134 49.2843 58.8265 49.535 58.4341 49.6986C58.0526 49.8512 57.6329 49.9274 57.1751 49.9274Z" fill="#DEAB52"/>
<path d="M64.6165 43.273C64.8563 43.273 65.0853 43.3384 65.3033 43.4692C65.5212 43.6 65.6302 43.758 65.6302 43.9433C65.6302 44.085 65.5812 44.2049 65.4831 44.303C65.3959 44.4011 65.2651 44.4502 65.0907 44.4502C64.9926 44.4502 64.9054 44.4338 64.8291 44.4011C64.7637 44.3575 64.682 44.2976 64.5838 44.2213C64.4857 44.1341 64.3931 44.0687 64.3059 44.0251C64.2187 43.9815 64.1152 43.9597 63.9953 43.9597C63.8535 43.9597 63.7009 44.0196 63.5374 44.1395C63.3848 44.2485 63.1396 44.4992 62.8017 44.8917V48.4069C62.8017 48.7339 62.8398 48.9737 62.9161 49.1263C63.0033 49.2789 63.1559 49.3879 63.374 49.4533C63.5919 49.5078 63.9298 49.535 64.3876 49.535C64.4313 49.535 64.453 49.5677 64.453 49.6331C64.453 49.6986 64.4313 49.7312 64.3876 49.7312C64.0388 49.7312 63.7609 49.7258 63.5538 49.7149L62.3439 49.6986L61.4446 49.7149C61.3029 49.7258 61.1068 49.7312 60.8561 49.7312C60.8234 49.7312 60.807 49.6986 60.807 49.6331C60.807 49.5677 60.8234 49.535 60.8561 49.535C61.1504 49.535 61.3684 49.5078 61.5101 49.4533C61.6517 49.3879 61.7444 49.2789 61.788 49.1263C61.8425 48.9737 61.8698 48.7339 61.8698 48.4069V45.1696C61.8698 44.799 61.8261 44.5319 61.7389 44.3684C61.6517 44.2049 61.5046 44.1232 61.2975 44.1232C61.1231 44.1232 60.8288 44.2049 60.4146 44.3684H60.3819C60.3383 44.3684 60.3056 44.3466 60.2838 44.303C60.2729 44.2485 60.2892 44.2104 60.3328 44.1886L62.2295 43.2893C62.2513 43.2785 62.2839 43.273 62.3275 43.273C62.4256 43.273 62.5292 43.3983 62.6382 43.649C62.7472 43.8997 62.8017 44.2213 62.8017 44.6137V44.63C63.2486 44.1068 63.6029 43.7526 63.8645 43.5673C64.1261 43.3711 64.3767 43.273 64.6165 43.273Z" fill="#DEAB52"/>
<path d="M66.9425 49.7312C66.9207 49.7312 66.9098 49.6986 66.9098 49.6331C66.9098 49.5677 66.9207 49.535 66.9425 49.535C67.2368 49.535 67.4548 49.5078 67.5965 49.4533C67.7491 49.3879 67.8526 49.2789 67.9071 49.1263C67.9616 48.9628 67.9889 48.723 67.9889 48.4069V45.3494C67.9889 44.957 67.9453 44.6736 67.8581 44.4992C67.7818 44.3248 67.6455 44.2377 67.4493 44.2377C67.2531 44.2377 67.0079 44.3139 66.7136 44.4665H66.6972C66.6536 44.4665 66.6209 44.4393 66.5991 44.3848C66.5773 44.3303 66.5828 44.2921 66.6155 44.2703L68.741 43.2893L68.8064 43.273C68.8282 43.273 68.8554 43.2893 68.8881 43.322C68.9208 43.3438 68.9372 43.3711 68.9372 43.4038C68.9372 43.4801 68.9317 43.6981 68.9208 44.0578C68.9099 44.4175 68.9045 44.8426 68.9045 45.3331V48.4069C68.9045 48.7339 68.9317 48.9737 68.9862 49.1263C69.0407 49.2789 69.1388 49.3879 69.2805 49.4533C69.4222 49.5078 69.6402 49.535 69.9345 49.535C69.9672 49.535 69.9836 49.5677 69.9836 49.6331C69.9836 49.6986 69.9672 49.7312 69.9345 49.7312C69.6838 49.7312 69.4822 49.7258 69.3296 49.7149L68.4467 49.6986L67.5638 49.7149C67.4112 49.7258 67.2041 49.7312 66.9425 49.7312ZM68.3159 41.36C68.087 41.36 67.9071 41.3001 67.7763 41.1802C67.6564 41.0603 67.5965 40.8913 67.5965 40.6733C67.5965 40.4553 67.6564 40.2864 67.7763 40.1665C67.9071 40.0466 68.087 39.9866 68.3159 39.9866C68.5339 39.9866 68.7028 40.0466 68.8227 40.1665C68.9426 40.2864 69.0026 40.4553 69.0026 40.6733C69.0026 40.8913 68.9426 41.0603 68.8227 41.1802C68.7028 41.3001 68.5339 41.36 68.3159 41.36Z" fill="#DEAB52"/>
<path d="M75.6478 43.2076C76.1165 43.2076 76.5525 43.322 76.9558 43.5509C77.3591 43.7798 77.6807 44.1232 77.9205 44.581C78.1603 45.0279 78.2802 45.5783 78.2802 46.2323C78.2802 47.0171 78.1058 47.693 77.757 48.2598C77.4191 48.8157 76.9722 49.2353 76.4163 49.5187C75.8713 49.8021 75.2936 49.9438 74.6832 49.9438C73.8439 49.9438 73.1027 49.704 72.4596 49.2244L71.217 49.813H71.1843C71.1407 49.813 71.1134 49.7912 71.1025 49.7476C71.0916 49.704 71.1025 49.6713 71.1352 49.6495C71.484 49.4097 71.7293 49.1862 71.871 48.9791C72.0127 48.7612 72.0835 48.4505 72.0835 48.0472V39.9703C72.0835 39.5779 72.0399 39.2945 71.9527 39.1201C71.8764 38.9457 71.7402 38.8585 71.544 38.8585C71.3914 38.8585 71.1461 38.9293 70.8082 39.071H70.7755C70.7428 39.071 70.7156 39.0438 70.6938 38.9893C70.6829 38.9348 70.6938 38.9021 70.7265 38.8912L72.7702 37.8938L72.852 37.8775C72.8738 37.8775 72.901 37.8938 72.9337 37.9265C72.9773 37.9483 72.9991 37.9756 72.9991 38.0083V44.63C73.4133 44.194 73.8275 43.8507 74.2417 43.6C74.6559 43.3384 75.1246 43.2076 75.6478 43.2076ZM75.19 49.6331C75.8222 49.6331 76.3127 49.3879 76.6615 48.8974C77.0212 48.4069 77.2011 47.7038 77.2011 46.7882C77.2011 45.8072 77.0103 45.0551 76.6288 44.5319C76.2473 44.0088 75.7405 43.7472 75.1083 43.7472C74.7377 43.7472 74.3834 43.8507 74.0455 44.0578C73.7076 44.254 73.3588 44.5319 72.9991 44.8917V47.573C72.9991 48.0526 73.1136 48.445 73.3425 48.7503C73.5823 49.0555 73.8711 49.2789 74.209 49.4206C74.5469 49.5623 74.8739 49.6331 75.19 49.6331Z" fill="#DEAB52"/>
<path d="M84.8327 48.8156C84.8654 48.8156 84.8926 48.8374 84.9144 48.881C84.9471 48.9137 84.9526 48.9464 84.9308 48.9791C84.1896 49.6114 83.3939 49.9274 82.5437 49.9274C81.9006 49.9274 81.3447 49.7803 80.876 49.486C80.4073 49.1917 80.053 48.8102 79.8132 48.3415C79.5843 47.8619 79.4699 47.3441 79.4699 46.7882C79.4699 46.1342 79.6225 45.5402 79.9277 45.0061C80.2438 44.472 80.6689 44.0523 81.203 43.7472C81.7371 43.431 82.3311 43.273 82.9851 43.273C83.5737 43.273 84.0315 43.4201 84.3585 43.7144C84.6855 43.9978 84.849 44.3903 84.849 44.8917C84.849 45.0224 84.8327 45.1205 84.8 45.1859C84.7782 45.2404 84.7291 45.2677 84.6528 45.2677L80.6307 45.3004C80.5762 45.5947 80.549 45.8781 80.549 46.1506C80.549 47.0989 80.7779 47.8728 81.2357 48.4723C81.6935 49.0609 82.3257 49.3552 83.1323 49.3552C83.7536 49.3552 84.3149 49.1753 84.8163 48.8156H84.8327ZM82.4292 43.6C81.9823 43.6 81.6063 43.7308 81.3011 43.9924C81.0068 44.2431 80.7997 44.6028 80.6798 45.0715L83.7209 45.0061C83.7209 44.5592 83.601 44.2158 83.3612 43.976C83.1323 43.7253 82.8216 43.6 82.4292 43.6Z" fill="#DEAB52"/>
<path d="M50.6743 59.2687C50.707 59.2687 50.7233 59.3015 50.7233 59.3669C50.7233 59.4323 50.707 59.465 50.6743 59.465C50.2165 59.465 49.884 59.5903 49.6769 59.841C49.4698 60.0917 49.3663 60.5004 49.3663 61.0672V69.6837C49.3663 69.7055 49.339 69.7218 49.2845 69.7327C49.23 69.7437 49.1919 69.7382 49.1701 69.7164L41.6491 60.6095L41.5019 60.4459V67.7054C41.5019 68.2721 41.6 68.6809 41.7962 68.9316C42.0033 69.1714 42.3303 69.2913 42.7772 69.2913C42.8099 69.2913 42.8263 69.324 42.8263 69.3894C42.8263 69.4548 42.8099 69.4875 42.7772 69.4875C42.5047 69.4875 42.2976 69.482 42.1559 69.4711L41.3384 69.4548L40.5046 69.4711C40.352 69.482 40.1285 69.4875 39.8342 69.4875C39.8124 69.4875 39.8015 69.4548 39.8015 69.3894C39.8015 69.324 39.8124 69.2913 39.8342 69.2913C40.3029 69.2913 40.6354 69.1714 40.8316 68.9316C41.0278 68.6809 41.1259 68.2721 41.1259 67.7054V60.0535C40.7008 59.6611 40.2702 59.465 39.8342 59.465C39.8015 59.465 39.7852 59.4323 39.7852 59.3669C39.7852 59.3015 39.8015 59.2687 39.8342 59.2687L40.4392 59.2851C40.57 59.296 40.7498 59.3015 40.9787 59.3015C41.2185 59.3015 41.4147 59.296 41.5673 59.2851C41.7199 59.2742 41.8398 59.2687 41.927 59.2687C42.0142 59.2687 42.0742 59.2906 42.1069 59.3341C42.1505 59.3668 42.2159 59.4486 42.3031 59.5794C42.4339 59.7756 42.5647 59.9554 42.6955 60.1189L48.9902 67.8525V61.0672C48.9902 60.5004 48.8921 60.0917 48.6959 59.841C48.5106 59.5903 48.1945 59.465 47.7476 59.465C47.7258 59.465 47.7149 59.4323 47.7149 59.3669C47.7149 59.3015 47.7258 59.2687 47.7476 59.2687L48.3853 59.2851C48.7123 59.3069 48.9793 59.3178 49.1864 59.3178C49.3826 59.3178 49.6551 59.3069 50.0039 59.2851L50.6743 59.2687Z" fill="#DEAB52"/>
<path d="M54.82 69.7001C54.1878 69.7001 53.6265 69.5474 53.136 69.2422C52.6564 68.9261 52.2858 68.5065 52.0242 67.9833C51.7626 67.4492 51.6318 66.8715 51.6318 66.2502C51.6318 65.5417 51.8007 64.9422 52.1386 64.4517C52.4874 63.9503 52.9289 63.5797 53.463 63.3399C54.008 63.0892 54.5584 62.9639 55.1143 62.9639C55.7574 62.9639 56.3188 63.1219 56.7984 63.438C57.278 63.7541 57.6431 64.1738 57.8938 64.697C58.1554 65.2093 58.2862 65.7542 58.2862 66.3319C58.2862 67.0078 58.1282 67.6018 57.8121 68.1141C57.496 68.6155 57.0709 69.0079 56.5368 69.2913C56.0136 69.5638 55.4413 69.7001 54.82 69.7001ZM55.2942 69.3894C55.8937 69.3894 56.3569 69.1768 56.6839 68.7517C57.0109 68.3266 57.1744 67.6726 57.1744 66.7897C57.1744 66.114 57.06 65.509 56.8311 64.9749C56.6131 64.4408 56.3079 64.0266 55.9155 63.7323C55.5231 63.4271 55.0762 63.2745 54.5748 63.2745C53.9862 63.2745 53.5284 63.487 53.2014 63.9122C52.8853 64.3372 52.7272 64.9476 52.7272 65.7433C52.7272 66.4082 52.8362 67.0186 53.0542 67.5745C53.2722 68.1304 53.5774 68.5719 53.9698 68.8989C54.3622 69.2259 54.8037 69.3894 55.2942 69.3894Z" fill="#DEAB52"/>
<path d="M69.756 63.1764C69.7887 63.1764 69.8051 63.2091 69.8051 63.2745C69.8051 63.3399 69.7887 63.3726 69.756 63.3726C69.4944 63.3726 69.2655 63.4598 69.0693 63.6342C68.884 63.8086 68.6987 64.1192 68.5134 64.5661L66.4697 69.4711C66.4588 69.5147 66.3988 69.5365 66.2898 69.5365C66.1808 69.5365 66.1209 69.5147 66.11 69.4711L64.2624 65.4981L62.6111 69.4711C62.6002 69.5147 62.5402 69.5365 62.4312 69.5365C62.3222 69.5365 62.2623 69.5147 62.2514 69.4711L59.9624 64.5335C59.7444 64.0648 59.5591 63.7541 59.4065 63.6015C59.2648 63.4489 59.0849 63.3726 58.8669 63.3726C58.8342 63.3726 58.8179 63.3399 58.8179 63.2745C58.8179 63.2091 58.8342 63.1764 58.8669 63.1764C59.0849 63.1764 59.2539 63.1819 59.3738 63.1927L59.9951 63.2091L60.9761 63.1927C61.1396 63.1819 61.3739 63.1764 61.6791 63.1764C61.7118 63.1764 61.7282 63.2091 61.7282 63.2745C61.7282 63.3399 61.7118 63.3726 61.6791 63.3726C61.3739 63.3726 61.1396 63.4053 60.9761 63.4707C60.8126 63.5252 60.7308 63.6233 60.7308 63.765C60.7308 63.8413 60.7526 63.923 60.7962 64.0102L62.7909 68.2285L64.0826 65.1057L63.821 64.5335C63.603 64.0648 63.4231 63.7541 63.2814 63.6015C63.1397 63.4489 62.9653 63.3726 62.7582 63.3726C62.7364 63.3726 62.7255 63.3399 62.7255 63.2745C62.7255 63.2091 62.7364 63.1764 62.7582 63.1764C62.9762 63.1764 63.1397 63.1819 63.2487 63.1927L63.8537 63.2091L64.9164 63.1927C65.069 63.1819 65.2761 63.1764 65.5377 63.1764C65.5704 63.1764 65.5868 63.2091 65.5868 63.2745C65.5868 63.3399 65.5704 63.3726 65.5377 63.3726C64.9164 63.3726 64.6058 63.5034 64.6058 63.765C64.6058 63.8413 64.6276 63.923 64.6712 64.0102L66.6495 68.2613L68.1864 64.4844C68.2627 64.3209 68.3009 64.1628 68.3009 64.0102C68.3009 63.7922 68.1973 63.6342 67.9902 63.5361C67.7831 63.4271 67.4561 63.3726 67.0092 63.3726C66.9874 63.3726 66.9765 63.3399 66.9765 63.2745C66.9765 63.2091 66.9874 63.1764 67.0092 63.1764C67.3035 63.1764 67.527 63.1819 67.6796 63.1927L68.6606 63.2091L69.2492 63.1927C69.3582 63.1819 69.5271 63.1764 69.756 63.1764Z" fill="#DEAB52"/>
</svg>
