<svg width="280" height="322" viewBox="0 0 280 322" fill="none" xmlns="http://www.w3.org/2000/svg">
<g clip-path="url(#clip0)">
<path d="M140 315.762L5.56641 238.513V83.0109L140 5.76172L274.434 83.0109V237.509L140 315.762ZM6.56964 237.509L140 314.758L273.431 237.509V84.0142L140 6.76496L6.56964 84.0142V237.509Z" fill="#DEAB52"/>
<path d="M10.1082 84.9528C9.09733 86.9745 6.06484 87.9853 3.03235 86.9745C1.01069 85.9637 -0.000140965 82.9312 1.01069 79.8987C2.02152 76.8662 5.05401 76.8662 8.0865 77.877C10.1082 79.8987 11.119 82.9312 10.1082 84.9528Z" fill="url(#paint0_linear)"/>
<path d="M144.548 7.1169C142.527 10.1494 139.494 10.1494 137.473 9.13856C135.451 8.12773 134.44 5.09524 135.451 2.06275C136.462 0.0410848 139.494 -0.969745 142.527 0.0410848C144.548 2.06275 145.559 5.09524 144.548 7.1169Z" fill="url(#paint1_linear)"/>
<path d="M9.0973 241.632C8.08647 243.653 5.05398 244.664 2.02149 243.653C-0.000174969 242.642 -1.01101 239.61 -0.00017494 236.577C1.01066 234.556 4.04315 233.545 7.07564 234.556C10.1081 236.577 10.1081 239.61 9.0973 241.632Z" fill="url(#paint2_linear)"/>
</g>
<defs>
<linearGradient id="paint0_linear" x1="0.614136" y1="77.2725" x2="11.8402" y2="85.5675" gradientUnits="userSpaceOnUse">
<stop stop-color="#D7914E"/>
<stop offset="0.307292" stop-color="#FFE2B4"/>
<stop offset="0.713542" stop-color="#FDAE62"/>
<stop offset="1" stop-color="#FEC973"/>
</linearGradient>
<linearGradient id="paint1_linear" x1="135.054" y1="-0.355469" x2="146.28" y2="7.93953" gradientUnits="userSpaceOnUse">
<stop stop-color="#D7914E"/>
<stop offset="0.307292" stop-color="#FFE2B4"/>
<stop offset="0.713542" stop-color="#FDAE62"/>
<stop offset="1" stop-color="#FEC973"/>
</linearGradient>
<linearGradient id="paint2_linear" x1="-0.396729" y1="234.159" x2="10.7244" y2="242.726" gradientUnits="userSpaceOnUse">
<stop stop-color="#D7914E"/>
<stop offset="0.307292" stop-color="#FFE2B4"/>
<stop offset="0.713542" stop-color="#FDAE62"/>
<stop offset="1" stop-color="#FEC973"/>
</linearGradient>
<clipPath id="clip0">
<rect width="280" height="321.444" fill="white" transform="translate(0 0.0400391)"/>
</clipPath>
</defs>
</svg>
