<svg width="169" height="16" viewBox="0 0 169 16" fill="none" xmlns="http://www.w3.org/2000/svg">
<g clip-path="url(#clip0)">
<path d="M165.499 5.35547L166.169 6.17555C166.169 6.17555 166.025 7.4676 163.358 7.84585C163.358 7.84585 165.533 7.22325 165.499 5.35547Z" fill="#DEAB52"/>
<path d="M165.499 10.7111L166.169 9.891C166.169 9.891 166.025 8.59895 163.358 8.2207C163.358 8.22405 165.533 8.84664 165.499 10.7111Z" fill="#DEAB52"/>
<path d="M168.45 8.03305L167.325 7.49414L164.647 8.03305L167.325 8.57531L168.45 8.03305Z" fill="#DEAB52"/>
<path d="M80.5515 15.755L79.2962 15.6312C79.2962 15.6312 78.3306 14.4161 80.2685 11.832C80.2685 11.832 78.9533 14.2086 80.5515 15.755Z" fill="#DEAB52"/>
<path d="M76.0469 11.2285L76.1701 12.4904C76.1701 12.4904 77.3788 13.4645 79.9493 11.513C79.9493 11.513 77.5885 12.8352 76.0469 11.2285Z" fill="#DEAB52"/>
<path d="M75.8076 15.9977L77.2127 15.4956L79.0208 12.7676L76.3037 14.5818L75.8076 15.9977Z" fill="#DEAB52"/>
<path d="M78.4679 13.569L78.2314 13.3313C81.7376 9.80666 86.3992 7.86523 91.3571 7.86523H166.289V8.19996H91.3571C86.4858 8.19996 81.9108 10.1079 78.4679 13.569Z" fill="#DEAB52"/>
<path d="M3.40071 10.6408L2.73145 9.82068C2.73145 9.82068 2.87462 8.52863 5.54171 8.15039C5.54171 8.15374 3.36409 8.77633 3.40071 10.6408Z" fill="#DEAB52"/>
<path d="M3.40071 5.28516L2.73145 6.10524C2.73145 6.10524 2.87462 7.39729 5.54171 7.77553C5.54171 7.77553 3.36409 7.15294 3.40071 5.28516Z" fill="#DEAB52"/>
<path d="M0.450195 7.96274L1.57563 8.505L4.25271 7.96274L1.57563 7.42383L0.450195 7.96274Z" fill="#DEAB52"/>
<path d="M88.3477 0.240234L89.603 0.364084C89.603 0.364084 90.5719 1.57915 88.6307 4.16325C88.6307 4.16325 89.9459 1.79003 88.3477 0.240234Z" fill="#DEAB52"/>
<path d="M92.8497 4.76869L92.7265 3.50677C92.7265 3.50677 91.5178 2.53271 88.9473 4.48417C88.9473 4.48417 91.3114 3.162 92.8497 4.76869Z" fill="#DEAB52"/>
<path d="M93.0921 0L91.6836 0.498745L89.8789 3.23013L92.5926 1.41255L93.0921 0Z" fill="#DEAB52"/>
<path d="M77.5429 8.1315H2.61133V7.79677H77.5429C82.4109 7.79677 86.9893 5.89217 90.4322 2.42773L90.6686 2.66539C87.1624 6.19008 82.5008 8.1315 77.5429 8.1315Z" fill="#DEAB52"/>
</g>
<defs>
<clipPath id="clip0">
<rect width="168" height="16" fill="white" transform="translate(0.450195)"/>
</clipPath>
</defs>
</svg>
